log.txt
VCD info: dumpfile out.vcd opened for output.
         0 0  00 x 0 x
        10 1  10 x 1 x
        20 0  10 x 1 x
summator 1 bit  123456789: Writte enabled, input=10, output=xx
        30 1  10 x 1 0
summator_bit1_test ( 123456789): 1
        40 0  10 1 0 0
summator_bit1_test ( 123456789): 1
        50 1  01 1 1 1
        60 0  01 1 1 1
summator 1 bit  123456789: Writte enabled, input=01, output=xx
        70 1  01 1 1 0
summator_bit1_test ( 123456789): 1
        80 0  01 1 0 0
summator_bit1_test ( 123456789): 1
        90 1  11 1 1 1
       100 0  11 1 1 1
summator 1 bit  123456789: Writte enabled, input=11, output=xx
       110 1  11 1 1 0
summator_bit1_test ( 123456789): 2
       120 0  11 2 0 0
summator_bit1_test ( 123456789): 2
       130 1  00 2 1 1
       140 0  00 2 1 1
summator 1 bit  123456789: Writte enabled, input=00, output=xx
       150 1  00 2 1 0
summator_bit1_test ( 123456789): 0
       160 0  00 0 0 0
summator_bit1_test ( 123456789): 0
       170 1  10 0 1 1
       180 0  10 0 1 1
summator 1 bit  123456789: Writte enabled, input=10, output=xx
       190 1  10 0 1 0
summator_bit1_test ( 123456789): 1
       200 0  10 1 0 0
summator_bit1_test ( 123456789): 1
       210 1  01 1 1 1
       220 0  01 1 1 1
summator 1 bit  123456789: Writte enabled, input=01, output=xx
       230 1  01 1 1 0
summator_bit1_test ( 123456789): 1
       240 0  01 1 0 0
summator_bit1_test ( 123456789): 1
       250 1  11 1 1 1
       260 0  11 1 1 1
summator 1 bit  123456789: Writte enabled, input=11, output=xx
       270 1  11 1 1 0
summator_bit1_test ( 123456789): 2
       280 0  11 2 0 0
summator_bit1_test ( 123456789): 2
       290 1  00 2 1 1
       300 0  00 2 1 1
summator 1 bit  123456789: Writte enabled, input=00, output=xx
       310 1  00 2 1 0
summator_bit1_test ( 123456789): 0
       320 0  00 0 0 0
summator_bit1_test ( 123456789): 0
       330 1  10 0 1 1
       340 0  10 0 1 1
summator 1 bit  123456789: Writte enabled, input=10, output=xx
       350 1  10 0 1 0
summator_bit1_test ( 123456789): 1
       360 0  10 1 0 0
summator_bit1_test ( 123456789): 1
       370 1  01 1 1 1
       380 0  01 1 1 1
summator 1 bit  123456789: Writte enabled, input=01, output=xx
       390 1  01 1 1 0
summator_bit1_test ( 123456789): 1
       400 0  01 1 1 0
